<?xml version="1.0" encoding="utf-8"?>
<svg xmlns="http://www.w3.org/2000/svg" id="svg2216" width="1000" viewBox="0 0 1920 1080">
  <g id="layer2" transform="translate(-8 605.5)">
    <path id="rect11870" fill="#757ccc" stroke-width="68.4" d="M8 -117.1H1928V605.5H8z" transform="scale(1 -1)"/>
    <path id="rect9359" fill="#191847" stroke-width="48.3" d="M8 114.5H1928V474.5H8z"/>
    <path id="path1258" fill="#555" stroke-linecap="round" stroke-linejoin="bevel" stroke-width="12.4" d="m 880.211,224.4 87.7,-183.84 87.8,183.84"/>
    <path id="path11910" fill="#4d4d4d" stroke-linecap="round" stroke-linejoin="bevel" stroke-width="12.4" d="m 928.0836,124.0476 39.8274,-83.4876 87.8,183.84"/>
    <g id="g11926" fill="#8a8a8a" stroke-width="50" color="#000" font-family="sans-serif" font-weight="400" white-space="normal">
      <path id="path11928" d="m 235.1485,-82.0608 1422.2685,279.2493" enable-background="accumulate" overflow="visible" style="line-height:normal;font-variant-ligatures:normal;font-variant-position:normal;font-variant-caps:normal;font-variant-numeric:normal;font-variant-alternates:normal;font-variant-east-asian:normal;font-feature-settings:normal;font-variation-settings:normal;text-indent:0;text-align:start;text-decoration-line:none;text-decoration-style:solid;text-decoration-color:#000;text-transform:none;text-orientation:mixed;shape-padding:0;shape-margin:0;inline-size:0;isolation:auto;mix-blend-mode:normal;filter-blend-mode:normal;filter-gaussianBlur-deviation:0"/>
      <path id="path11930" d="m 257.9788,-103.0549 -27.6468,45.5256 1422.268,279.25 -16.983,-54.2904 z" enable-background="accumulate" overflow="visible" style="line-height:normal;font-variant-ligatures:normal;font-variant-position:normal;font-variant-caps:normal;font-variant-numeric:normal;font-variant-alternates:normal;font-variant-east-asian:normal;font-feature-settings:normal;font-variation-settings:normal;text-indent:0;text-align:start;text-decoration-line:none;text-decoration-style:solid;text-decoration-color:#000;text-transform:none;text-orientation:mixed;shape-padding:0;shape-margin:0;inline-size:0;isolation:auto;mix-blend-mode:normal"/>
    </g>
    <path id="path2854" fill="none" stroke="#555" stroke-width="8.3" d="m 526.4519,-45.50344 31.4451,-194.61776"/>
    <path id="path2852" fill="none" stroke="#555" stroke-width="12.4" d="m 550.3035,-25.25777 38.8466,-351.64113"/>
    <path id="path2849" fill="none" stroke="#555" stroke-width="12.4" d="m 438.2063,-57.41657 150.9438,-319.48233"/>
    <path id="rect2770" fill="#e3e3e3" stroke-dasharray="1.66247,1.66247" stroke-linecap="round" stroke-linejoin="round" stroke-width=".8" d="m 523.6775,-372.119 131.2813,25.7759 -55.2109,195.0432 -142.3929,-38.1071 z"/>
    <g id="g4960" transform="rotate(101.1 218.1 121.4) scale(.61549)">
      <path id="path3064" fill="#4d4d4d" stroke-width=".5" d="m -234.8,121.9 c -4.4,11.4 -13.6,18.3 -8.3,20.8 7.2,3.7 11.1,-4.8 14.3,-18 z"/>
      <path id="path2875" fill="#999" stroke-width=".5" d="m -234.3,122.1 3,-5.5 c 5.1,-14.1 39.9,-87.31 44.2,-88.18 1.9,3.98 -32.4,77.18 -39.9,90.18 l -1.8,6.1 z"/>
      <path id="path2877" fill="#ff4133" stroke-width=".5" d="m -241.1,133.4 c -3.1,4.7 -5.2,7.8 -2,9.3 5.6,2.9 9.2,-1.5 12,-9.8 -5.8,1.5 -2.8,-3.3 -10,0.5 z"/>
      <path id="path2879" fill="#ececec" stroke-linecap="round" stroke-linejoin="round" stroke-width="4.7" d="m -231.7,116.2 5.2,2.5 -2.3,6 -6,-2.8 z"/>
    </g>
    <g id="g4966" transform="scale(.6172) rotate(70.7 474.8 412.5)">
      <path id="path3070" fill="#4d4d4d" stroke-width=".5" d="m -214.2,121.9 c -4.4,11.4 -13.6,18.3 -8.3,20.8 7.2,3.7 11.1,-4.8 14.3,-18 z"/>
      <path id="path3072" fill="#999" stroke-width=".5" d="m -213.7,122.1 3,-5.5 c 5.1,-14.1 39.9,-87.31 44.2,-88.18 1.9,3.98 -32.4,77.18 -39.9,90.18 l -1.8,6.1 z"/>
      <path id="path3074" fill="#ff9b21" stroke-width=".5" d="m -220.5,133.4 c -3.1,4.7 -5.2,7.8 -2,9.3 5.6,2.9 9.2,-1.5 12,-9.8 -5.8,1.5 -2.8,-3.3 -10,0.5 z"/>
      <path id="path3076" fill="#ececec" stroke-linecap="round" stroke-linejoin="round" stroke-width="4.7" d="m -211.1,116.2 5.2,2.5 -2.3,6 -6,-2.8 z"/>
    </g>
    <g id="humaaan-11-6" fill="none" transform="scale(.83) rotate(11.1 2993.7 1697.2)">
      <g id="Head/Front/Airy-7" transform="rotate(-7 172.1 -447.9)">
        <g id="Head-5" fill="#915b3c" transform="translate(56.3 32.3)">
          <path id="path2190-3" fill="#676767" d="m 8.617,35.97 c -4.806,-5.64 -8.0584,-12.55 -7.515,-20.3 1.566,-22.318 32.638,-17.409 38.678,-6.144 6.04,11.264 5.32,39.834 -2.49,41.854 -3.11,0.8 -9.75,-1.17 -16.5,-5.24 l 4.24,29.99 h -25.03 z"/>
        </g>
      </g>
      <g id="Bottom/Standing/Sweatpants-6" transform="translate(0 203.7)">
        <path id="Leg-2" fill="#555" d="M189.7 9.948e-14L133.5 9.948e-14 171.7 131.6 189.7 230.5 207.7 230.5z"/>
        <path id="path2196-9" fill="#676767" d="m 116.3,0 c 2.7,68.39 1.6,105.7 1,111.9 -0.6,6.2 -3.9,47.8 -27.02,120.7 h 18.72 c 30.6,-69.9 41.3,-111.5 44.8,-120.7 3.5,-9.2 13.8,-46.48 29,-111.9 z"/>
        <path id="Pant-1" fill="#bcbcbc" d="m 132.7,0 c 9.9,45.3 27.1,117.6 51.5,216.9 h 26.4 c 2,-101.9 -6.3,-169.01 -20.7,-216.9 z"/>
        <path id="path2199-2" fill="#cdcdcd" d="m 116.2,0 c 2.6,68.39 -4.2,135.8 -25.12,218 h 28.12 c 30.6,-68.8 52.6,-135.89 67.6,-218 z"/>
        <g id="Accessories-Shoe-Flat-Simple-7" fill="#191847" transform="translate(87.6 207.5)">
          <path id="Shoe-0" fill="#555" d="m 0,38.59 1.035,-16.69 c 6.06,1.77 13.645,1.08 22.765,-2.08 9.81,6.94 22.16,11.68 37.04,14.22 v 0 c 1.14,0.2 1.9,1.28 1.7,2.41 0,0.1 0,0.15 0,0.22 l -1.44,5.05 h -37.26 -21.73 z"/>
        </g>
        <g id="g2205-9" fill="#191847" transform="translate(185.6 207.5)">
          <path id="path2203-3" fill="#555" d="m 0,38.59 1.035,-16.69 c 6.06,1.77 13.645,1.08 22.765,-2.08 9.81,6.94 22.16,11.68 37.04,14.22 v 0 c 1.14,0.2 1.9,1.28 1.7,2.41 0,0.1 0,0.15 0,0.22 l -1.44,5.05 h -37.26 -21.73 z"/>
        </g>
      </g>
      <g id="Body/Hoodie-6" transform="rotate(-10 688.5 20)">
        <path id="Skin-0" fill="#676767" d="m 199,96.17 33.2,24.43 c 9.1,2.4 16.6,5.5 22.6,9.1 1.5,1.3 3.2,3.9 -2.7,3.5 -6,-0.5 -12.2,-0.7 -13,1.3 -0.9,2 2.7,4.5 1.1,7.2 -1.1,1.8 -6.3,-2.7 -15.6,-13.7 l -33,-13.7 z m -127.76,0.84 21.79,0.1 c -13.45,43.39 -20.72,66.49 -21.79,69.09 -2.42,6 2.69,15.1 4.88,20 -7.12,3.2 -6.36,-8.6 -15.33,-4.4 -8.19,3.8 -14.42,10.7 -23.88,4.9 -1.17,-0.7 -2.44,-3.4 0.64,-5.6 7.67,-5.2 18.73,-14.4 20.22,-17.5 2.04,-4.1 6.53,-26.3 13.47,-66.58 z"/>
        <path id="Coat-Back-6" fill="#777" d="m 128,9.991 8.8,-2.327 c 35.9,25.876 54.4,79.996 97.8,105.736 l -8.7,13 c -71.7,-2.5 -95.1,-68.47 -97.9,-116.409 z" transform="rotate(5 181.3 67)"/>
        <path id="Shirt-2" fill="#e3e3e3" d="m 93.86,118.9 c 36.14,0 62.74,0 79.84,0 3.6,0 2.9,-5.3 2.4,-7.9 -6.1,-30.69 -29.8,-63.74 -29.8,-107.391 l -23.1,-3.609 c -19,30.62 -25.58,68.31 -29.34,118.9 z"/>
        <path id="Coat-Front-6" fill="#959595" d="m 94.5,30.1 c -3.34,-0.97 -5.99,-3.21 -7.94,-6.73 -8.41,-15.177 -5.37,-23.5344 3.62,-26.281 8.99,-2.748 17.02,2.911 31.32,2.911 0.8,0 1.5,0 2.1,0.1465 l 7.3,0.4112 c 20.6,70.0623 26.3,116.8423 17.1,140.2423 h -62.85 c -3.72,8.7 -7.28,16 -10.68,21.9 h -17.11 c -1.61,-52.1 10.77,-96.28 37.14,-132.6 z"/>
        <path id="Shade-1" fill="#000" fill-opacity=".1" d="m 98.83,104.8 c 1.97,16.5 5.17,28.5 9.67,36 h -23.35 c 4.34,-10.1 8.9,-22.1 13.68,-36 z"/>
      </g>
    </g>
    <path id="path2856" fill="#303030" stroke-width=".8" d="m 437.4647,-377.1542 c -0.049,-1.4729 -4.0946,0.1771 -3.9545,1.6171 0,0 3.968,1.7602 3.9522,0.979 z"/>
    <path id="path4970" fill="#999" stroke-width=".3" d="m 355.0423,-202.475 c 15.0619,1.6885 30.1093,3.8817 30.7973,5.1164 -1.0702,1.1431 -17.1719,0.012 -32.7705,-1.5286 z"/>
    <path id="path4991" fill="#999" stroke-width=".3" d="m 354.8024,-201.2534 c 11.0123,7.2369 20.7695,13.9736 20.8554,15.2592 -1.3495,0.4117 -12.5217,-6.0108 -24.3963,-13.1634 z"/>
    <path id="hair" fill="#303030" stroke-width=".8" d="m 432.0884,-398.4497 c -2.5277,-1.3421 -6.3824,-2.3865 -8.048,-2.519 1.4138,-2.0314 2.2257,-4.4432 2.3732,-6.9178 0.2162,-2.3935 -0.4508,-4.5966 -1.0187,-6.8733 -0.2169,-1.0491 -0.5983,-2.1221 -1.1874,-2.9989 -0.5858,-0.8932 -1.4656,-1.5818 -2.4779,-2.0259 -1.0108,-0.4522 -2.0743,-0.6356 -3.1762,-0.6236 -0.4263,0.018 -0.9566,0.1336 -1.3861,0.1676 -0.5127,0.026 -0.6994,-0.3149 -0.9676,-0.672 -0.6769,-0.8603 -1.7483,-1.4344 -2.7831,-1.7644 -1.1129,-0.3623 -2.3617,-0.4637 -3.502,-0.2562 -1.1307,0.1586 -2.3077,0.5534 -3.2932,1.2649 -0.4009,0.3188 -0.8146,0.7027 -1.0734,1.1594 -0.1198,0.1795 -0.1438,0.3016 -0.4025,0.3269 -0.1789,0.05 -0.4232,0 -0.5957,0.018 -1.9963,0.2593 -3.8234,1.3807 -5.0791,3.0372 -0.6981,0.971 -1.3117,2.8043 -1.6444,4.9295 -0.3328,2.1253 0.461,7.9903 1.8594,10.3455 1.277,2.1115 3.3255,3.7401 5.5034,4.709 -1.8001,1.4143 -3.2793,3.3483 -4.4392,5.3788 -1.1967,2.2179 -2.1666,4.5733 -2.9018,7.0255 -0.6282,2.338 -1.1207,4.8463 -1.008,7.2874 0.063,2.2623 0.8533,4.2697 2.5042,5.7694 0.712,0.6812 1.5311,1.248 2.4349,1.8145 0.8382,0.469 1.6701,0.9707 2.5994,1.4069 1.7277,0.6775 3.7797,0.9958 5.4329,-0.1005 0.5893,-0.4172 1.2873,-0.9567 1.8177,-1.5039 0.1262,-0.212 0.238,-0.3508 0.1997,-0.5866 -0.1931,-0.3086 -0.3975,-0.5602 -0.6002,-0.8199 -1.2341,-1.4687 -1.7367,-3.2167 -1.6116,-5.1459 0.1298,-1.9537 1.1828,-4.3012 3.1376,-4.7802 2.5632,-0.5624 4.7761,1.09 6.5963,2.5892 1.4938,-2.8699 3.826,-5.2708 6.87,-6.1279 3.3985,-0.9398 6.9356,-0.4314 10.3724,-1.1352 0.8832,-0.1903 1.8557,-0.4053 2.5649,-1.0019 0.3019,-0.2453 0.7028,-0.5641 0.861,-0.939 0.2636,-0.4811 0.023,-0.9767 -0.1433,-1.4237 -0.9688,-2.3893 -5.26,-7.6722 -7.7876,-9.0143 z"/>
    <path id="polygon1131" fill="#ddd" stroke-linecap="round" stroke-linejoin="round" stroke-miterlimit="10" d="M52.5 90L47.5 87.5 42.5 90 37.5 87.5 32.5 90 27.5 87.5 22.5 90 17.5 65 77.5 65 82.5 90 77.5 87.5 72.5 90 67.5 87.5 62.5 90 57.5 87.5z" transform="scale(5.32744) rotate(11.1 484.8 1164.1)"/>
    <path id="polygon1133" fill="#eee" stroke-linecap="round" stroke-linejoin="round" stroke-miterlimit="10" d="M17.5 65L22.5 35 82.5 35 77.5 65z" transform="scale(5.32744) rotate(11.1 484.8 1164.1)"/>
    <path id="polygon1135" fill="#ddd" stroke-linecap="round" stroke-linejoin="round" stroke-miterlimit="10" d="M82.5 35L77.5 10 17.5 10 22.5 35z" transform="scale(5.32744) rotate(11.1 484.8 1164.1)"/>
    <path id="path9333" fill="#555" stroke-linejoin="bevel" stroke-miterlimit="10" stroke-width="10" d="m 1323.57,-99.2402 -3.828,9.4389 261.38,51.32024 3.831,-9.43886 z" color="#000" enable-background="accumulate" font-family="sans-serif" font-weight="400" overflow="visible" white-space="normal" style="line-height:normal;font-variant-ligatures:normal;font-variant-position:normal;font-variant-caps:normal;font-variant-numeric:normal;font-variant-alternates:normal;font-variant-east-asian:normal;font-feature-settings:normal;font-variation-settings:normal;text-indent:0;text-align:start;text-decoration-line:none;text-decoration-style:solid;text-decoration-color:#000;text-transform:none;text-orientation:mixed;shape-padding:0;shape-margin:0;inline-size:0;isolation:auto;mix-blend-mode:normal"/>
    <path id="path9329" fill="#555" stroke-linejoin="bevel" stroke-miterlimit="10" stroke-width="10" d="m 1333.041,-124.5254 -3.829,9.4389 130.692,25.6602 3.828,-9.4389 z" color="#000" enable-background="accumulate" font-family="sans-serif" font-weight="400" overflow="visible" white-space="normal" style="line-height:normal;font-variant-ligatures:normal;font-variant-position:normal;font-variant-caps:normal;font-variant-numeric:normal;font-variant-alternates:normal;font-variant-east-asian:normal;font-feature-settings:normal;font-variation-settings:normal;text-indent:0;text-align:start;text-decoration-line:none;text-decoration-style:solid;text-decoration-color:#000;text-transform:none;text-orientation:mixed;shape-padding:0;shape-margin:0;inline-size:0;isolation:auto;mix-blend-mode:normal"/>
    <path id="path9325" fill="#555" stroke-linejoin="bevel" stroke-miterlimit="10" stroke-width="10" d="m 1342.564,-149.8008 -3.83,9.4389 261.383,51.3184 3.83,-9.4389 z" color="#000" enable-background="accumulate" font-family="sans-serif" font-weight="400" overflow="visible" white-space="normal" style="line-height:normal;font-variant-ligatures:normal;font-variant-position:normal;font-variant-caps:normal;font-variant-numeric:normal;font-variant-alternates:normal;font-variant-east-asian:normal;font-feature-settings:normal;font-variation-settings:normal;text-indent:0;text-align:start;text-decoration-line:none;text-decoration-style:solid;text-decoration-color:#000;text-transform:none;text-orientation:mixed;shape-padding:0;shape-margin:0;inline-size:0;isolation:auto;mix-blend-mode:normal"/>
    <path id="path9345" fill="#555" stroke-linejoin="bevel" stroke-miterlimit="10" stroke-width="10" d="m 1351.939,-202.252 0.488,10.2867 156.83,30.7911 -0.489,-10.2867 z" color="#000" enable-background="accumulate" font-family="sans-serif" font-weight="400" overflow="visible" white-space="normal" style="line-height:normal;font-variant-ligatures:normal;font-variant-position:normal;font-variant-caps:normal;font-variant-numeric:normal;font-variant-alternates:normal;font-variant-east-asian:normal;font-feature-settings:normal;font-variation-settings:normal;text-indent:0;text-align:start;text-decoration-line:none;text-decoration-style:solid;text-decoration-color:#000;text-transform:none;text-orientation:mixed;shape-padding:0;shape-margin:0;inline-size:0;isolation:auto;mix-blend-mode:normal"/>
    <path id="path9349" fill="#555" stroke-linejoin="bevel" stroke-miterlimit="10" stroke-width="10" d="m 1351.844,-229.418 0.489,10.2887 261.381,51.3183 -0.489,-10.2867 z" color="#000" enable-background="accumulate" font-family="sans-serif" font-weight="400" overflow="visible" white-space="normal" style="line-height:normal;font-variant-ligatures:normal;font-variant-position:normal;font-variant-caps:normal;font-variant-numeric:normal;font-variant-alternates:normal;font-variant-east-asian:normal;font-feature-settings:normal;font-variation-settings:normal;text-indent:0;text-align:start;text-decoration-line:none;text-decoration-style:solid;text-decoration-color:#000;text-transform:none;text-orientation:mixed;shape-padding:0;shape-margin:0;inline-size:0;isolation:auto;mix-blend-mode:normal"/>
    <path id="path9353" fill="#555" stroke-linejoin="bevel" stroke-miterlimit="10" stroke-width="10" d="m 1508.578,-225.7891 0.487,10.2867 104.553,20.5274 -0.487,-10.2867 z" color="#000" enable-background="accumulate" font-family="sans-serif" font-weight="400" overflow="visible" white-space="normal" style="line-height:normal;font-variant-ligatures:normal;font-variant-position:normal;font-variant-caps:normal;font-variant-numeric:normal;font-variant-alternates:normal;font-variant-east-asian:normal;font-feature-settings:normal;font-variation-settings:normal;text-indent:0;text-align:start;text-decoration-line:none;text-decoration-style:solid;text-decoration-color:#000;text-transform:none;text-orientation:mixed;shape-padding:0;shape-margin:0;inline-size:0;isolation:auto;mix-blend-mode:normal"/>
    <path id="path9357" fill="#555" stroke-linejoin="bevel" stroke-miterlimit="10" stroke-width="10" d="m 1508.48,-252.9551 0.49,10.2867 104.552,20.5293 -0.487,-10.2867 z" color="#000" enable-background="accumulate" font-family="sans-serif" font-weight="400" overflow="visible" white-space="normal" style="line-height:normal;font-variant-ligatures:normal;font-variant-position:normal;font-variant-caps:normal;font-variant-numeric:normal;font-variant-alternates:normal;font-variant-east-asian:normal;font-feature-settings:normal;font-variation-settings:normal;text-indent:0;text-align:start;text-decoration-line:none;text-decoration-style:solid;text-decoration-color:#000;text-transform:none;text-orientation:mixed;shape-padding:0;shape-margin:0;inline-size:0;isolation:auto;mix-blend-mode:normal"/>
    <path id="path1151" fill="none" stroke="#555" stroke-linejoin="bevel" stroke-miterlimit="10" stroke-width="10" d="m 1372.748,51.24047 -78.415,-15.39597 z"/>
    <path id="path1153" fill="none" stroke="#555" stroke-linejoin="bevel" stroke-miterlimit="10" stroke-width="10" d="m 1424.928,34.33988 -130.69,-25.65995 z"/>
    <path id="path9337" fill="#555" stroke-linejoin="bevel" stroke-miterlimit="10" stroke-width="10" d="m 1314.1,-73.9531 -3.831,9.43884 182.969,35.92382 3.828,-9.43886 z" color="#000" enable-background="accumulate" font-family="sans-serif" font-weight="400" overflow="visible" white-space="normal" style="line-height:normal;font-variant-ligatures:normal;font-variant-position:normal;font-variant-caps:normal;font-variant-numeric:normal;font-variant-alternates:normal;font-variant-east-asian:normal;font-feature-settings:normal;font-variation-settings:normal;text-indent:0;text-align:start;text-decoration-line:none;text-decoration-style:solid;text-decoration-color:#000;text-transform:none;text-orientation:mixed;shape-padding:0;shape-margin:0;inline-size:0;isolation:auto;mix-blend-mode:normal"/>
    <path id="path9341" fill="#555" stroke-linejoin="bevel" stroke-miterlimit="10" stroke-width="10" d="m 1304.576,-48.67773 -3.829,9.43886 209.104,41.05664 3.831,-9.43886 z" color="#000" enable-background="accumulate" font-family="sans-serif" font-weight="400" overflow="visible" white-space="normal" style="line-height:normal;font-variant-ligatures:normal;font-variant-position:normal;font-variant-caps:normal;font-variant-numeric:normal;font-variant-alternates:normal;font-variant-east-asian:normal;font-feature-settings:normal;font-variation-settings:normal;text-indent:0;text-align:start;text-decoration-line:none;text-decoration-style:solid;text-decoration-color:#000;text-transform:none;text-orientation:mixed;shape-padding:0;shape-margin:0;inline-size:0;isolation:auto;mix-blend-mode:normal"/>
    <path id="path1159" stroke="#ff4133" stroke-linecap="round" stroke-linejoin="round" stroke-miterlimit="10" stroke-width="5.3" d="m 1490.08,95.9942 c -0.149,8.2232 6.117,16.1312 14.063,17.6913 7.946,1.5601 14.488,-3.8332 14.689,-12.0461 0.149,-8.2231 -6.117,-16.13111 -14.063,-17.69124 v 0 c -7.946,-1.56012 -14.211,-9.46813 -14.062,-17.69126 0.201,-8.21286 6.743,-13.60619 14.689,-12.04607 7.946,1.56013 14.211,9.46813 14.063,17.69126 0.148,-8.22313 -6.117,-16.13113 -14.063,-17.69126 -7.946,-1.56012 -14.488,3.83321 -14.689,12.04607 -0.149,8.22313 6.116,16.13114 14.062,17.69126 v 0 c 7.946,1.56013 14.212,9.46814 14.063,17.69124 -0.201,8.2129 -6.743,13.6062 -14.689,12.0461 -7.946,-1.5601 -14.212,-9.4681 -14.063,-17.6913 z"/>
    <path id="path1161" fill="#ff4133" stroke="#ff4133" stroke-linecap="round" stroke-linejoin="round" stroke-miterlimit="10" stroke-width="5.3" d="m 1504.143,113.6855 -0.152,7.4082 z"/>
    <path id="path1163" fill="#ff4133" stroke="#ff4133" stroke-linecap="round" stroke-linejoin="round" stroke-miterlimit="10" stroke-width="5.3" d="m 1505.558,46.75036 -0.162,7.46047 z"/>
    <path id="path11912" fill="#303030" d="m 431.5408,-362.5795 c 2.4643,-0.9392 6.9839,0.1878 6.9839,0.1878 l -1.0075,2.522 c -2.0742,0.068 -5.9764,-2.7098 -5.9764,-2.7098 z"/>
    <g style="line-height:1.25;-inkscape-font-specification:'Architects Daughter Bold'" id="flowRoot11914" aria-label="?" font-family="Architects Daughter" font-size="40" font-weight="700" letter-spacing="0" transform="matrix(1.7842 .91883 -.45942 2.60547 -303.5 -1523.3)" word-spacing="0">
      <path style="-inkscape-font-specification:'Daniel Black, Bold'" id="path11922" fill="#ff9b21" d="m 574.4551,272.4481 c -0.072,2.8003 -1.5368,5.3213 -3.0078,7.6172 -0.5171,0.042 -0.8618,0.9977 -1.5677,1.3914 -0.7094,0.5809 -1.2747,1.4091 -2.2728,1.4627 -1.2695,1.3648 -3.1934,1.9647 -4.6069,3.253 -1.4483,1.1259 -3.3354,1.4675 -4.7852,2.6605 -0.9539,0.7673 -2.1516,1.2825 -3.0965,1.4865 1.1965,-0.01 -1.5949,0.6989 -0.6058,0.7819 -1.0842,1.5319 -2.3985,2.8904 -3.1946,4.5739 -0.6569,-0.2069 -0.5553,-0.3326 -1.278,0.055 -0.2596,-0.6528 -1.4076,-1.0052 -1.937,-1.7643 -0.1692,-1.6383 0.1495,-3.2545 0.3351,-4.8768 0.8193,-1.5893 1.822,-3.1018 3.2775,-4.1905 1.6451,-1.3805 3.459,-2.5559 5.3646,-3.4884 2.0162,-1.2227 3.9698,-2.5607 6.0248,-3.687 1.9841,-1.2125 3.9426,-2.4838 5.4984,-4.2383 1.0032,-0.6446 -0.1906,-1.1857 -0.6955,-1.5939 -1.1718,-0.6816 -2.7848,-0.8265 -4.0805,-0.582 -1.4495,0.044 -2.8907,0.1154 -4.2712,0.2207 -1.6891,0.5462 -3.6147,0.3544 -5.1611,1.3672 -1.7801,0.1662 -3.0201,1.5143 -4.5117,2.3633 -0.7625,-0.9495 -2.3137,0.6957 -2.4414,-0.957 -1.6095,-0.5443 -0.413,-2.1552 -0.5303,-3.3152 0.2668,-0.9496 0.723,-1.7452 1.7418,-2.0489 1.9852,-1.1137 4.2499,-1.6203 6.3769,-2.4142 3.2663,-1.1761 6.7563,-1.0555 10.1655,-1.3032 1.6472,-0.013 3.3739,0.4868 4.7311,0.7706 1.907,0.8292 3.5268,2.4822 4.3127,4.4055 0.026,0.6874 0.1273,1.3689 0.2156,2.0503 z m -19.4336,29.5313 c -0.3449,0.9004 -0.1901,1.9709 -1.0086,2.4612 -0.2961,0.5941 -0.802,1.2954 -0.9846,0.9522 -0.5653,-1.0526 -2.536,0.2924 -1.9201,-0.5613 -1.2872,0.1338 -1.5899,-1.1577 -1.8304,-1.8872 0.028,-1.2198 0.2087,-2.4928 0.645,-3.562 0.6957,-2.3427 3.2165,-1.2794 4.39,-0.066 0.6322,0.7318 0.6568,1.749 0.7087,2.6633 z" font-family="Daniel Black"/>
    </g>
  </g>
</svg>
