<?xml version="1.0" encoding="UTF-8" standalone="no"?>
<svg xmlns="http://www.w3.org/2000/svg" width="1000" viewBox="0 0 1920 1080">
  <filter id="a" width="3" height="3" x="-1" y="-1"/>
  <rect width="1920" height="1080" fill="#fff"/>
  <path fill="#b28b67" d="M343.7 614.4l-32.5-2.2A68.8 68.8 0 0 0 293 606c-1.5 0-4 .7-.1 3.4 3.8 2.9 7.6 5.9 7.1 7.5-.4 1.6-3.9 1.3-4.3 3.8-.3 1.6 5.1 1.5 16.4-.2l26.8 8.6z"/>
  <path fill="#89c5cc" d="M491.2 948.1v-11.8l-10.4-5.9v-23.6l-10.5-5.9V782.7l-10.4-5.9v-70.9l-10.4-5.9-20.8-11.8v-23.6l-20.9-11.8v-35.5l-10.4-5.9V576l10.4-5.9v-23.6l-10.4-5.9h-20.8l-20.9-11.9v-11.8l-31.2-17.7v-11.8l-10.4-5.9-10.4 5.9-41.7-23.6-.3-24.8-10.4-6v-11.8l-10.2-4.7v-11.8l-10.4-5.9V387l-10.4-5.9v23.6l10.4 5.9v23.6l-10.4-5.9v-11.8l-10.4-5.9v-47.2l-10.4-5.9v-47.3l10.4-5.9v-11.8l10.4-5.9v-47.3l10.4-5.9v-23.6l-41.6-23.6-10.5 5.9h-20.8l-41.7 23.6H95.3l-20.8 11.8-10.5-5.9 31.3-17.7H116v-11.8l-10.4-5.9v-11.8l10.4-6h21l10.4-5.9v-11.8l10.4-5.9 10.4 5.9 10.4-5.9V133l20.9-11.8h41.6L262 133l10.4-5.9 20.8 11.8 10.5-5.9h41.6l10.4 5.9h20.9l10.4 5.9h20.8l10.5-5.9 10.4 5.9h20.8l10.4-5.9 10.4 5.9 20.9-11.8 10.4 5.9v23.6l-10.4 5.9h-20.9l-41.6 23.7v11.8l41.6 23.6v23.6l10.5-5.9v-23.6l20.8-11.8V198l10.4-5.9v-11.8l10.4-5.9 20.9 11.8V198l10.4 5.9 20.8-11.8v23.6l10.4 5.9 10.5 5.9v11.8L564.1 257h-20.8l-10.4 6v11.8l10.4 5.9v11.8l-20.9 11.8v-11.8h-20.8l-10.4 5.9v11.8l-41.7 23.6v23.7l-41.7 23.6v47.2l-10.4-5.9v-23.6L376.6 387l-20.9 11.8-20.8-11.8-20.8 11.8v23.6l-10.4 5.9v35.5l10.4 5.9h20.8l10.4-5.9V452l10.4-5.9v23.6l-10.4 5.9v11.8h20.9l10.4 5.9v23.6l31.2 17.8 20.9-11.9h20.8l10.4 5.9h41.7l20.8 11.9v11.8l62.5 35.4v11.8l10.5 5.9h20.8l31.3 17.8v11.8l10.4 5.9v23.6l-10.4 5.9v35.4l-10.5 6v11.8l-20.8 11.8v11.8l-20.8 11.8v11.8l-20.9 11.8v11.8l-10.4 5.9v11.9l-20.8 11.8v23.6l-20.9 11.8v47.3l-10.4 5.9v47.2zM1658 865.4l10 5.9 11-5.9v11.8l-21 11.8zm-10-5.9l-11-5.9V830l-10 5.9v-11.8l-21-11.8h-21l-21 11.8h-21l-20 11.8-11-5.9 11-5.9v-82.7l31-17.7h21l10-5.9v-11.9l63-35.4 20 11.8-10 5.9V700l31 17.8v-23.7l11-5.9v-23.6l10 5.9v23.6l11 5.9v23.7l10 5.9v23.6l10 5.9v47.3l-31 17.7v11.8l-10 5.9v11.8l-11 5.9zM970.4 830v-35.5l-20.8-11.8v-59l-10.4-5.9v-94.5l-20.9-11.9V576l-20.8-11.8v-11.8l-10.4-5.9-31.3 17.7-10.4-5.9-20.8 11.8-20.9-11.8v-11.8l-20.8-11.8v-11.9l-10.4-5.9v-94.5l20.8-11.8v-11.8l20.8-11.8v-11.8l10.5-5.9 10.4-17.7 10.4 5.9h20.8l31.3-17.8h20.8l10.4 5.9v11.9l20.9 11.8 20.8 11.8 20.9-11.8 20.7 11.8h42l10-5.9v-23.6l-10-6h-21l-10-5.9-11-5.9V322l11-5.9h20l11-5.9h41l-31-17.7-10 5.9-21-11.8-10 5.9v11.8l-11 5.9 11 5.9h-21v11.8l-10.7 5.9-20.9-11.8v-11.8l-20.8-11.8v-11.8l-10.4 5.9v11.8l20.8 11.8v11.8l-10.4 5.9v11.8l-10.4-5.9 10.4-5.9V322l-20.9-11.8v-11.8l-10.4-5.9-10.4 5.9h-20.8v11.8l-10.4 5.9v23.6l-10.5 5.9h-20.8l-10.4 6-10.4-6v-47.2h41.6v-23.6L845.4 263l10.4-6h20.9l20.8-11.8 20.8-11.8v-23.6l10.4-5.9v23.6l10.5-5.9 10.4 5.9 10.4-5.9 10.4 5.9 10.4-5.9v-11.8L1002 198v-11.8l-10.7 5.9-10.5-5.9v-11.8l10.5-6v-11.8l-20.9 11.8-10.4 6v11.8l10.4 5.9L960 198v11.8l-20.8 11.8V198l-10.5-5.9-20.8 11.8v-23.6l10.4-5.9 10.4-6v-11.8l10.5-5.9v-11.8l10.4-5.9h20.8l10.4-5.9h21.2l21 11.8h20l21 11.8h-41l20 11.8 21-11.8 11 5.9v-11.8l10-5.9v11.8l21-11.8 10 5.9 21-11.8h21l10 5.9v-23.6l11-5.9v11.8l10 5.9v11.8l11 5.9 10-5.9-21-11.8 11-5.9h20l-10-5.9 21-11.8h104l-21 11.8h63l10-5.9h21l21 11.8h83l11 5.9h41l11 5.9h62l11 5.9h20l11 5.9h21l31 17.7h-21l-10-5.9-11 5.9 21 11.9-31 17.7h-21v11.8l21 11.8v23.6l-11 5.9-20-11.8v-11.8l-11-5.9v-23.6l11-5.9-11-5.9-10 5.9-11-5.9-10 5.9V198l-7-4.7-24-1.2-21 11.8v11.8l-11 5.9 11 5.9h21l10 5.9v11.8l11 5.9v47.3l-11 5.9-10-5.9V322l-11 5.9 21 11.8v11.9l-10 5.9v-11.9l-42-23.6-21 11.8 21 11.8v11.9l31 17.7v23.6l-10 5.9v23.6l-42 23.7v11.8l-10 5.9v-11.8l11-6.3-11-5.5-21 11.8v11.8l31 17.7v35.4l-21 11.9-21-11.9V511l-20-11.8v35.5l20 11.8v11.8l11 5.9v23.6l-21-11.8v-23.6l-21-11.8v-59.1l-10-5.9v11.8l-11-5.9v-11.8l-20-11.8v-23.7l-32 17.8v11.8l-21 11.8v11.8l-10 5.9v35.4l-10 6-11-6v-11.8l-10-5.9v-11.8l-11-5.9v-35.4l-41-23.7v-11.8h-42l-21-11.8-10 5.9-21-11.8v-11.8l-10-5.9v23.6l20 11.8h21l21 11.8v11.9l-10 5.9v11.8l-32 17.7-41 23.6-11-5.9v-23.6l-10-5.9v-11.8l-11-5.9v-11.9l-20-11.8v-11.8l-11-5.9v-11.8l-10-5.9v23.6l10 5.9v11.8l11 5.9V452l10 5.9v11.8l10 5.9v11.8l21 11.8v23.6l11 4.8 41-22.5v23.6l-10 6v23.6l-21 11.8v11.8l-21 11.8v11.8l-21 11.8v35.5l11 5.9v47.2l-31 17.8v35.4l-21 11.8v23.6l-11 5.9v11.9l-20 11.8h-21l-21.2 11.8z"/>
  <path fill="#89c5cc" d="M1116 735.5l11-5.9v-23.7l21-11.8v-11.8l10-5.9v47.3l-10 5.9v23.6l-11 11.8h-10l-11-5.9zM1752 670.5l-21-11.8-10-5.9h-21l-21-11.8v-11.8l-11-5.9-31-17.8 21-11.8v11.8l10 5.9 11-5.9 21 11.8h21v11.9l20 11.8v11.8l11 5.9zM1491 641v-11.8l21 11.8h21l10 5.9-10 5.9-10-5.9h-21zM1752 635.1l10-5.9 11 5.9-11 5.9zM1575 629.2v-11.9l-11-5.9 11-5.9v-23.6l10 5.9h21l-10 5.9-11-5.9-10 5.9 21 11.8-11 5.9 11 5.9v11.9l-11-5.9zM1512 605.5v-23.6l11 5.9V576l20-11.8v-11.8l11-5.9 21 11.8-11 5.9v35.4l-10 5.9v11.8l-11 6zM1335 528.7l10 6v23.6l-10-5.9zM1606 552.4l-21-11.8 21-11.9 10 6v11.8zM1564 540.6l-10-5.9 10-6v-11.8l11 5.9-11 5.9zM1585 528.7v-11.8l11 5.9V511l-11-5.9 11-5.9V511l10 5.9zM1564 493.3v-11.8l11-5.9-11-5.9 11-5.9v11.8l10 5.9-10 5.9 10 5.9v11.8zM439.1 469.7l10.4-5.9h20.8l-20.8 11.8zM428.7 463.8l-31.3-17.7v-11.9l41.7 23.7zM1596 369.3l10-5.9v-11.8l10-6 11 6v-47.3l-11-5.9v-11.8l21 11.8 11-5.9v11.8l-11 5.9V322l11 5.9v23.7l-21 11.8-11-5.9-10 5.9V387l-10-5.9zM579.9 282.5l-4.8-20.6 10.6-10.4v8.7l5.1 10.7 2.5 13.1zM845.4 251.1v-11.8l10.4-5.9v-11.8l-10.4-5.9v-11.8l10.4-5.9v11.8l10.4 5.9v11.8l10.5 5.9v11.8l-10.5 5.9z"/>
  <path fill="#8ac6cc" d="M824.6 239.3l10.7-17.8 10.1-5.8v23.6l-10.4 5.9z"/>
  <path fill="#89c5cc" d="M1616 274.8l-10-5.9V257l-10-5.9v-23.6l10 5.9v11.8l10 5.9V263l11 5.9v11.8l-11 5.9z"/>
  <path fill="#8ac6cc" d="M647.5 186.2v-35.5l20.8-11.8v-11.8l-10.4-5.9v-11.8L637 97.6h-20.8l-10.4-6 10.4-5.8H637L668.3 68h20.8l10.4 6 10.5-6h104.1l10.5 6-20.9 11.8v23.6l-10.4 5.9v11.8l-62.5 23.6H710v11.8l-31.3 17.8v11.8l-10.4 5.9zM782.9 168.4l-10.4-5.9 10.4-5.9 10.4-5.9h20.8l10.5 5.9-20.9 11.8zM564.1 174.4l-20.8-11.9v-11.8l10.4-5.9V133l-10.4-5.9-10.4 5.9H512l-10.4-5.9v-11.8l10.4 5.9 20.9-11.8h20.8l41.7 23.6v11.8l10.4 5.9-10.4 5.9-10.5-5.9-10.4 5.9 10.4 5.9v11.9z"/>
  <path fill="#8ac6cc" d="M480.8 103.5h20.8l.1 12zM428.7 133h-20.9l-10.4 5.9v-11.8h-20.8l-10.4-5.9v-11.8l10.4-5.9 10.4 5.9 10.4-5.9 31.3 17.7 10.4-5.9v11.8z"/>
  <path fill="#89c5cc" d="M1095 121.2l11-5.9v-11.8l21-11.8h21l10 5.9h-21l-21 11.8v11.8l11 5.9h-21zM512 475.6l-20.8-11.8-10.4 5.9 20.8 11.8zM918.3 316.1v11.8l10.4-5.9zM1470 617.3v-11.8c-13-7.8-17-9.8-31-17.7V576l-10-5.9v-11.8l15 8.8 16 8.9v11.8l31 17.7v23.7zM1564 422.4l11 5.9V452l-11-5.9zM1606 670.5l-10-5.9 10-5.9v-11.8l10 5.9-10 5.9zM1543 646.9h42l11 5.9-11 5.9-10-5.9h-21zM1825 747.3l-11-5.9 11-5.9zM1846 711.9l10-6-10-5.9zM1835 587.8l11-5.9-11-5.9zM1721 499.2l-11-5.9 11-5.9z"/>
  <path fill="#fff" d="M435.4 311.2l-10.5-7.7-.2-10.2-10.1-5.7v23.6l10.4 5.9zM418.4 268.3l-8.1-.1-14.3 10.9 37.7-.1zM463.4 288.6l-10.1-5.8v17.6l10.4 5.9s.1-7.8-.3-17.7zM1171 303l-10 7.7v10.2l9 5.5v24.2l-9 5.5-10-5.6 10-7v-9.8l-11-7.5V303l11-5.9z"/>
  <path fill="#000f7b" d="M1218 303.8l-11-5.7v17.6l11 5.9z"/>
  <path fill="#80b9d1" d="M774.7 374.9v11.8l10.5-5.9z" enable-background="new" opacity=".9"/>
  <path fill="#333" d="M956.8 214.8c0 5.1-9 17.3-9 17.3s-9-12.2-9-17.3c0-5.2 4-9.4 9-9.4s9 4.2 9 9.4z" filter="url(#a)"/>
  <g filter="url(#a)">
    <path fill="#fff" d="M956.8 214.8c0 5-4 9.1-9 9.3a9.4 9.4 0 0 1 0-18.7c5 .2 9 4.4 9 9.4z"/>
    <path fill="none" stroke="#333" stroke-linecap="round" stroke-width="10" d="M956.8 214.8c0 5-4 9.1-9 9.3a9.4 9.4 0 0 1 0-18.7c5 .2 9 4.4 9 9.4z"/>
  </g>
  <path fill="#333" d="M911.2 230.9c0 5.1-9 17.3-9 17.3s-9-12.2-9-17.3c0-5.2 4-9.4 9-9.4s9 4.2 9 9.4z" filter="url(#a)"/>
  <g filter="url(#a)">
    <path fill="#fff" d="M911.2 230.9c0 5-4 9.1-9 9.3a9.4 9.4 0 0 1 0-18.7c5 .2 9 4.4 9 9.4z"/>
    <path fill="none" stroke="#333" stroke-linecap="round" stroke-width="10" d="M911.2 230.9c0 5-4 9.1-9 9.3a9.4 9.4 0 0 1 0-18.7c5 .2 9 4.4 9 9.4z"/>
  </g>
  <path fill="#89c5cc" d="M1825 877.2v-23.6l10-5.9v-23.6l11 5.9v23.6l10 5.9-21 11.8zM1762 912.7l-10-5.9 62-35.5v11.8z"/>
  <path fill="#8ac6cc" d="M512 971.7v-11.8l20.9 11.8-10.5 5.9z"/>
  <g>
    <polygon fill="#997659" points="474.4 680.5 481 786.5 492.8 873.2 483.5 877.5 442.3 695.6"/>
    <path fill="#B28B67" d="M475.2 675.6a600.6 600.6 0 0 0 60 58.6c1.5.7 30.3 0 86.5-1.7l-.4 10.4c-59 10.8-90.8 15.5-95.1 13.9-6.7-2.2-51.8-36.7-80.5-56l29.5-25.2z"/>
    <path fill="#E4E4E4" d="M611.6 731.7a17 17 0 0 1 1.7-5.2c.7-1.2 2-2.9 3.9-5 1.4 1 14 8.8 38.1 23.6-1 4-2.7 5.3-5 4.3-2.3-1.1-4.2-2-5.8-2.6l-22.6-3a.8.8 0 0 1-.6-1l.5-3.4a14.3 14.3 0 0 0-4-4.4c-1-.6-2.6-1-4.8-1.4-1 0-1.5-.9-1.4-1.7v-.1zM495.8 867.6c2.1 1.3 3.6 2.4 4.3 3.4 1 1 2 2.9 3.4 5.3l-28.7 23-7.5 3c-2.3-2.2-3-4.7-1.3-6.5 2.2-1.2 4.1-2.2 5.2-3.4l9.8-19c.2-.4.7-.5 1-.3l3.2 1.6c2.4-.6 4.3-1.3 5.4-2.2 1-.8 1.9-2.2 3-4.2.3-.8 1.3-1.1 2-.7h.1z"/>
    <polygon fill="#1F28CF" points="524.4 848.8 477.7 864.9 439.1 697.1 479 678.4"/>
    <path fill="#2B44FF" d="M606 729.8l.4 49.9c-50-6.1-80.6-11.5-92.2-16.4-11.7-5-35.5-25-71.4-60l37.6-32.1a940.6 940.6 0 0 0 48.6 49c2 1 27.7 4.2 77 9.6z"/>
    <path fill="#B28B67" d="M487 623.7l-6 17 72.7 3c5.1-.2 10.5 6 13.5 9 4.3-4.5-4.6-7 .9-12.6 5-5 11.8-7.9 10-16.5-.2-1-1.9-2.7-4.3-1a74 74 0 0 1-18.4 10.3c-3.5.5-26.3-2.6-68.3-9.2z"/>
    <path fill="#DB2721" d="M436.7 618.6l-4.2-13.5c-36.8 17.8-95.4-7.4-108.8-.2-4.8 2.5-4.3 7.3-6.9 7l1.1 11.3c2.5 0 2.2 4.7 8.6 8.3 6.4 3.8 75.4 18.3 110.2-12.9z"/>
    <path fill="#B28B67" d="M427 596.9c2.7-5 4-10.6 2.5-16.3-4.6-16.4-27-8-29.8 1.3-2.8 9.4 2 30.6 8.2 30.9 2.5.1 7.1-2.4 11.5-6.4l2.8 13 17.3 6.2-12.5-28.7z"/>
    <path fill="#191847" d="M408.2 581.5a21 21 0 0 1 8 6.2 4.8 4.8 0 0 1 6.5 6.7l4.7 4c4.6-4.2 6.6-14-.2-21.8-7.8-16.6-29.7-.8-35-2.8.4 6.5 4.6 11 16 7.7z"/>
    <path fill="#FF4133" d="M420 622.3c23 46.9 1.2 71.9 16.2 88 12.4 13.3 68.8 7.4 70-12 .4-7.7-21.5-49.4-25.2-57.7 5 5.3 54 6.5 61.5 6.7 13 1.9 8.1-3.2 12.2-3.7L556 633c-3.1-.1-.2-2-4.6-2.4-4.3-.5-72.2-20.2-108-25.8l-2.2-4c-1-1.5-3-2.1-4.4-1.2l-19.6 10.9a3.4 3.4 0 0 0-1.3 4.4l4.2 7.4z"/>
    <polygon fill="#1F28CF" points="1869 632.9 1843.2 738.1 1823 814.8 1835.6 823.5 1904.9 657.6"/>
    <path fill="#2B44FF" d="M1874 623.5c-29 17.8-70 41.7-72 42-2 .2-26-8.4-73-26.4l-8 13.7c50 24.6 77 37 82 37 7-.1 64-13 98-21.7l-27-44.6z"/>
    <path fill="#E4E4E4" d="M1727 629.3l8.2 14.6-14.2 8.9a98.5 98.5 0 0 0-33.5 5l-1.7-2.7 25.6-16 9.7-4.2-.9-1.3 6.8-4.3zM1814 825.9l10-13.4 13.9 9.5c3.4 9 9.3 18.7 18 28.7l-1.9 2.7-25-17.2-7.6-7.2-.9 1.4-6.5-4.5z"/>
    <path fill="#B28B67" d="M1846 585.7l3 16.5c-35-3.5-53-4.7-54-4.5-6-1.5-12 3.6-15 6.5-3-4.8 6-5.8 1-12.3-4-5.6-11-9.2-8-16.9 1-.7 3-2.3 4-1 6 5.5 14 11.5 17 12.7 3 .8 20 .2 52-1zM2001.2 587.6l30.6-7.7a82.3 82.3 0 0 1 16.4-8.7c1.4.3 3.8-.2.7 3.2-3.2 3.4-6.3 6.8-5.7 9 .8 1.2 4.1-.1 4.9 2 .4 2.2-4.8 3.1-15.8 2.8l-24.2 13.1-6.9-13.7z"/>
    <path fill="#E87613" d="M1913 588.3l6.4-12.5c33.2-5 72.6 13.8 109.7 4.5l2.4 11.8c-40.8 22.5-91 20.6-118.5-3.8z"/>
    <path fill="#B28B67" d="M1926.7 560c-2.6-5-3.8-10.7-2-16.3 5.2-16.3 27.4-7 29.8 2.4 2.5 9.4-3.2 30.5-9.3 30.6-2.5 0-7-2.7-11.3-6.9l-2.3 23-18.6-4.5 13.7-28.2z"/>
    <path fill="#191847" d="M1965.6 536.5a4 4 0 0 0-2.1-3.5l-1-.4-.2-.1c-.1-.1 0-.3 0-.4l-.1-.7a7.1 7.1 0 0 0-4.5-5.3c-.9-.3-1.7-.4-2.6-.3l-1.3.2-.7.2c-.2 0-.4-.4-.4-.6a7.6 7.6 0 0 0-4.3-2.5c-1.8-.4-3.6-.7-5.5 0a12 12 0 0 0-2 1.1c-.1.2-.1.2-.3 0a4 4 0 0 0-2.3-1c-.6-.1-1.1-.1-1.6 0-.2 0-.7.2-.8.1l-.7-.4a6 6 0 0 0-2.9-1 8 8 0 0 0-3.2.4 4 4 0 0 0-1.3.7l-.5.4-.4.3-1-.9c-.6-.2-1.2-.4-1.9-.3-1.1 0-2.2.7-3.2 1.3a8.3 8.3 0 0 0-1.9 1.7l-.2.4h-.4c-1 .2-1.9.5-2.7 1-.8.6-1.4 1.4-1.8 2.3l-.1.3-.3-.1h-.7a6 6 0 0 0-1.3 0c-1.7.5-3.1 1.6-4 3a7.7 7.7 0 0 0-1.2 5.2l.2.8v.3c0 .2-.2.3-.3.5l-1 1.6c-.4.9-.8 1.9-.8 3a4.3 4.3 0 0 0 .4 2l.2.3.1.2v.3l-.5.7a15.5 15.5 0 0 0-1.4 2.4c-.4 1-.7 2.3-.4 3.5a3.4 3.4 0 0 0 1.2 1.9c.1 0 .3 0 .3.2l-.2.5a8.3 8.3 0 0 0-.8 3.5 5 5 0 0 0 1.3 3 6.1 6.1 0 0 0 6 1.6c.5 0 1-.3 1.5-.6.7 1.7 2.8 2.1 4.3 2.1 2 0 3.8-1 5-2.4.9 1.7 3.5 1.8 4.7.4.3-.3.5-.7.6-1l.2-.7c0-.3.3-.5.5-.8.4-.5.6-1 .8-1.6l.1-.9.3-.7c-.5 0-1-.3-1.5-.6-.4-.2-.7-.7-1-1a7 7 0 0 1-.7-3.1c-.2-2.4.7-4.9 3.2-5.6 1.2-.3 4.2.5 5.3 1 1.2.7 2 3.8 2 4v.6c.3.3 1 0 1.3-.1l1.2-1c.9-1 1.6-2 2.2-3 .4-.8.8-1.7 1.4-2.5.5-.8 1.2-1.4 2-1.7 1-.3 2.1-.3 3.1-.4 1-.1 2-.3 3-.8l.5-.4c.1-.1.3-.4.5-.4.3-.1.5.3.7.5.9 1 1.5 2 2 3.2l1 3.4c0 1 0 2 .4 2.8.2.4 2.2 1 2.9 1a4 4 0 0 0 1.9-1c.3-.4.4-.9.5-1.4v-.8l-.1-.8c-.1-.4-.4-.8-.8-1a6.2 6.2 0 0 0 2.5-3c.2-.5.2-1 0-1.6-.1-.5-.6-1-1-1.4.8-.3 1.6-.9 2.3-1.5a6.7 6.7 0 0 0 2.2-4.7h.1z"/>
    <path fill="#DDE3E9" d="M1854 631.7c23 15.6 39 27.1 51 34.5 1 1.5 3-2.2 4-4 10-21.9 9-53.1 28-80.4l-14-12.3c-24 11.1-45 31.9-69 62.2z"/>
    <path fill="#FF9B21" d="M1892 576c-1-2.1-2-4.7-2-7.6 2-13.3 7-17.2 14-15 7 2.2 10 9.2 18 15.3 1 .5 1 .8 2 1.1l4 3.3c-17 53.1-34 85-50 95.7l-39-27.1c-3 1.8 30-38 30-38s-64.4-2.4-66.4-1.2l3.4-16.1c34-3.3 55 1.1 86-10.4z"/>
    <path fill-opacity=".1" d="M1863 624.9a62 62 0 0 0-9 26.9l-15-10.1c7-4.5 15-10 24-16.8z"/>
    <g transform="translate(-1908)">
      <polygon fill="#1F28CF" points="1904.9 657.6 1869 632.9 1843.2 738.1 1823 814.8 1835.6 823.5"/>
      <path fill="#2B44FF" d="M1874 623.5c-29 17.8-70 41.7-72 42-2 .2-26-8.4-73-26.4l-8 13.7c50 24.6 77 37 82 37 7-.1 64-13 98-21.7l-27-44.6z"/>
      <path fill="#E4E4E4" d="M1727 629.3l8.2 14.6-14.2 8.9a98.6 98.6 0 0 0-33.5 5l-1.7-2.7 25.6-16 9.7-4.2-.9-1.3 6.8-4.3zM1814 825.9l10-13.4 13.9 9.5c3.4 9 9.3 18.7 18 28.7l-1.9 2.7-25-17.2-7.6-7.2-.9 1.4-6.5-4.5z"/>
      <path fill="#B28B67" d="M1846 585.7l3 16.5c-35-3.5-53-4.7-54-4.5-6-1.5-12 3.6-15 6.5-3-4.8 6-5.8 1-12.3-4-5.6-11-9.2-8-16.9 1-.7 3-2.3 4-1 6 5.5 14 11.5 17 12.7 3 .8 20 .2 52-1zM2001.2 587.6l30.6-7.7a82.3 82.3 0 0 1 16.4-8.7c1.4.3 3.8-.2.7 3.2-3.2 3.4-6.3 6.8-5.7 9 .8 1.2 4.1-.1 4.9 2 .4 2.2-4.8 3.1-15.8 2.8l-24.2 13.1-6.9-13.7z"/>
      <path fill="#E87613" d="M1913 588.3l6.4-12.5c33.2-5 72.6 13.8 109.7 4.5l2.4 11.8c-40.8 22.5-91 20.6-118.5-3.8z"/>
      <path fill="#B28B67" d="M1926.7 560c-2.6-5-3.8-10.7-2-16.3 5.2-16.3 27.4-7 29.8 2.4 2.5 9.4-3.2 30.5-9.3 30.6-2.5 0-7-2.7-11.3-6.9l-2.3 23-18.6-4.5 13.7-28.2z"/>
      <path fill="#191847" d="M1965.6 536.5a4 4 0 0 0-2.1-3.5l-1-.4-.2-.1v-.3l-.1-.8a7.1 7.1 0 0 0-4.5-5.3c-.9-.3-1.7-.4-2.6-.3l-1.3.2-.7.2c-.2 0-.4-.4-.4-.5a7.6 7.6 0 0 0-4.3-2.6c-1.8-.4-3.6-.7-5.5 0a12.2 12.2 0 0 0-2 1.1c-.1.2-.1.2-.3 0a4 4 0 0 0-2.3-1c-.6-.1-1.1-.1-1.6 0-.2 0-.7.2-.8.1l-.7-.4a6 6 0 0 0-2.9-1 8 8 0 0 0-3.2.4 4 4 0 0 0-1.3.7l-.5.4-.4.3-1-.9c-.6-.2-1.2-.4-1.9-.3-1.1 0-2.2.7-3.2 1.3a8.2 8.2 0 0 0-1.9 1.7l-.2.4h-.4a5.4 5.4 0 0 0-4.5 3.3l-.1.3-.3-.1h-.7a6 6 0 0 0-1.3 0c-1.7.5-3.1 1.6-4 3a7.7 7.7 0 0 0-1.2 5.2l.2.8v.3c0 .2-.2.3-.3.5l-1 1.6c-.4.9-.8 1.9-.8 3a4.2 4.2 0 0 0 .4 2l.2.3.1.2v.3l-.5.7a15.5 15.5 0 0 0-1.4 2.4c-.4 1-.7 2.3-.4 3.5a3.4 3.4 0 0 0 1.2 1.9c.1 0 .3 0 .3.2l-.2.5a8.3 8.3 0 0 0-.8 3.5 5 5 0 0 0 1.3 3 6.1 6.1 0 0 0 6 1.6c.5 0 1-.3 1.5-.6.7 1.7 2.8 2.1 4.3 2.1 2 0 3.8-1 5-2.4.9 1.7 3.5 1.8 4.7.4.3-.3.5-.7.6-1l.2-.7c0-.3.3-.5.5-.8.4-.5.6-1 .8-1.6l.1-.9.3-.7c-.5 0-1-.3-1.5-.6-.4-.2-.7-.7-1-1a7 7 0 0 1-.7-3.1c-.2-2.4.7-4.9 3.2-5.6 1.2-.3 4.2.5 5.3 1 1.2.6 2 3.8 2 4v.6c.3.3 1 0 1.3-.1l1.2-1c.9-1 1.6-2 2.2-3 .4-.8.8-1.7 1.4-2.5.5-.8 1.2-1.4 2-1.7 1-.3 2.1-.3 3.1-.4 1-.1 2-.3 3-.8l.5-.4c.1-.1.3-.4.5-.4.3-.1.5.3.7.5.9 1 1.5 2 2 3.2l1 3.4c0 1 0 2 .4 2.8.2.4 2.2 1 2.9 1a4 4 0 0 0 1.9-1c.3-.4.4-.9.5-1.4v-.8l-.1-.8c-.1-.4-.4-.8-.8-1a6.2 6.2 0 0 0 2.5-3c.2-.5.2-1 0-1.6-.1-.5-.6-1-1-1.4.8-.3 1.6-.9 2.3-1.5a6.7 6.7 0 0 0 2.2-4.7h.1z"/>
      <path fill="#DDE3E9" d="M1854 631.7c23 15.6 39 27.1 51 34.5 1 1.5 3-2.2 4-4 10-21.9 9-53.1 28-80.4l-14-12.3c-24 11.1-45 31.9-69 62.2z"/>
      <path fill="#FF9B21" d="M1892 576c-1-2.1-2-4.7-2-7.6 2-13.3 7-17.2 14-15 7 2.2 10 9.2 18 15.3 1 .5 1 .8 2 1.1l4 3.3c-17 53.1-34 85-50 95.7l-39-27.1c-3 1.8 30-38 30-38s-64.4-2.4-66.4-1.2l3.4-16.1c34-3.3 55 1.1 86-10.4z"/>
      <path fill-opacity=".1" d="M1863 624.9a62 62 0 0 0-9 26.9l-15-10.1c7-4.5 15-10 24-16.8z"/>
    </g>
    <rect width="116.6" height="147.4" x="153.4" y="544.7" fill="#BFBFBF" transform="scale(-1) rotate(54.8 1193.6 -408.6)"/>
    <path fill="#B28B67" d="M311.2 612.2l-12.6 2c1 1 1.6 2 1.4 2.7-.4 1.6-4 1.3-4.3 3.8-.3 1.6 5.1 1.5 16.4-.2l-1-8.3zM1332.2 185.8c3.1-5.1 4.8-11 3.4-17.2-4-17.7-28.3-9.8-31.7 0-3.4 9.7.8 32.5 7.3 33.1 2.6.3 7.6-2.1 12.5-6.2l.4 24.5 20-3.2-12-31z"/>
    <path fill="#191847" d="M1293 157.5c.2-1.6 1.2-3 2.6-3.6a4 4 0 0 1 1.1-.3h.2v-.4l.2-.8c.1-.9.6-1.7 1.1-2.4 1-1.4 2.5-2.4 4.1-2.8 1-.3 1.9-.3 2.8 0 .5 0 1 .1 1.4.3.1 0 .6.3.7.2l.5-.5a8 8 0 0 1 4.7-2.3c2-.3 4-.5 5.8.4a11.4 11.4 0 0 1 2 1.4c.2.1.2.2.3 0 .8-.6 1.7-1 2.6-1a6 6 0 0 1 1.7.2l.8.3c.2 0 .6-.4.7-.5 1-.5 2.1-.8 3.2-.8s2.3.3 3.4.8c.5.2.9.4 1.3.8l.5.5.4.3a7 7 0 0 1 1.2-.8c.6-.2 1.3-.3 1.9-.2a8.5 8.5 0 0 1 5.2 3.7l.2.3c.1.2.2.2.4.2 1 .2 2 .6 2.7 1.3.8.6 1.4 1.5 1.7 2.5l.1.3h.3a6.6 6.6 0 0 1 2.2.2c1.7.6 3.1 1.9 4 3.5a8.2 8.2 0 0 1 .4 6.4v.3c0 .2.2.4.4.5l.8 1.8c.4 1 .7 2.1.6 3.2a4.7 4.7 0 0 1-.6 2.2l-.2.3-.1.2c-.1.1-.2 0 0 .2 0 .3.3.6.4.8a14.6 14.6 0 0 1 1.3 2.7 6 6 0 0 1 .1 3.7 3.7 3.7 0 0 1-1.4 1.9c-.1 0-.3.1-.3.3v.5c.5 1.2.8 2.5.6 3.8a5.3 5.3 0 0 1-1.6 3 6.5 6.5 0 0 1-6.4 1.2c-.6-.1-1.1-.4-1.6-.7-.9 1.6-3.1 2-4.8 1.8-2-.2-4-1.4-5.1-3-1 1.7-3.8 1.6-5 0a4 4 0 0 1-.5-1.2l-.2-.7c0-.3-.3-.5-.5-.8a5 5 0 0 1-.6-1.7l-.1-1-.2-.8c.5 0 1.1-.3 1.6-.5.4-.2.8-.7 1-1 .7-1 1-2.1 1.2-3.3.3-2.4-.4-5.1-3-6-1.1-.5-4.4 0-5.7.5-1.3.6-2.4 3.8-2.4 4.1l-.1.6c-.3.3-1 0-1.3-.3-.5-.3-.9-.7-1.2-1.2-.8-1-1.5-2.1-2-3.3-.5-1-.8-1.9-1.3-2.7a4.4 4.4 0 0 0-2-2c-1-.4-2.2-.5-3.3-.7-1-.2-2-.5-3-1.1l-.5-.5-.5-.5c-.3 0-.6.4-.8.6-1 .8-1.8 2-2.3 3.1-.6 1.2-1 2.3-1.4 3.6-.2 1-.2 2-.8 3-.2.3-2.3.8-3 .6a4 4 0 0 1-2-1.2c-.3-.4-.4-.9-.4-1.4l.1-1 .1-.7c.2-.5.5-.8 1-1-.6-.4-1-.9-1.4-1.4a7 7 0 0 1-1-2c-.1-.6-.1-1.2.1-1.7.3-.6.8-1 1.2-1.4-.8-.4-1.6-1-2.2-1.8-1.3-1.4-2.3-3.2-2-5.1z"/>
    <path fill="#1F28CF" d="M1328 475.7s-15.3-178.8-14-183.2l50.2-8.1-16 102.6-4.6 84-15.5 4.7z"/>
    <path fill="#2B44FF" d="M1366.3 287c6.6 31.6-3.5 57.2-3.4 99.2.5 1.6 20 21.1 58.4 58.6l-9.7 13.3c-46.4-37-70.6-57.7-72.7-62.2-3.2-6.8-16.4-67.5-22.8-103.6l50.2-5.4z"/>
    <path fill="#E4E4E4" d="M1435 455.8l-13-12.2-12.7 12.4a104.7 104.7 0 0 1-13.5 33.3l2.3 2.4 23-22.4 6.7-8.9 1.2 1.2 6-5.8zM1345 487.4l-.8-17.7h-17.8c-8.4 5.9-19.4 10.7-33 14.3v3.4h32.2l11-1.7v1.7h8.4z"/>
    <path fill="#997659" d="M1281 283.2l-31-10.8c-8 .4-15-.2-21-1.7-1-.5-3-2.4 2-3.2 5-1.2 10-2.6 10-4.2 0-2-3-2.9-2-5.3-1-2.1 5 .3 14 6.6l30 2.7-2 15.9zM1389 254.6l-18 2.9c27 42 41 63.9 42 65.9 3 4.5 0 12.4-1 16.6 6 1.6 4-7.7 12-5.5 7 2.1 13 6.8 19 .9 1-.7 2-3.1-1-4.4-7-3.1-17-9.1-18-11.3-2-3.1-14-24.8-35-65.1z"/>
    <path fill="#BFBFBF" d="M1331 204.5l-14 3.2c1 32.4-15 55.6-59 55.6l1 41.9c41-1.1 73-22.8 74-67.4 0-11.6 0-23.6-2-33.3z"/>
    <path fill="#C5CFD6" d="M1336 199.2l-21 8.4c-10 42.1 9 45.9-4 91.3 56 10.9 59-9.2 59-9.2l6 28.9 44-6.9c-18-51.2-46-88.8-82-112.7l-2 .2z"/>
    <path fill-opacity=".1" d="M1352 238c6 23 9 48.6 7 61.4 9-2.4 11-9.7 11-9.7-5-18.5-10-35.8-18-51.7z"/>
    <g>
      <path fill="#333" d="M1074 497.4c-.8 2.4-1.3 4.3-1.3 5.5 0 1.5.3 3.6.7 6.5h41.8c1.1-4 .5-6.2-1.9-6.5l-5.8-.8-19.4-9.6c-.4-.2-.8 0-1 .4l-1.3 3.3c-2.1 1.2-3.9 1.7-5.2 1.7a11 11 0 0 1-4.6-1.5c-.7-.3-1.6 0-2 .8v.2z"/>
    </g>
    <g>
      <path fill="#333" d="M1030.2 493.4c-1.3 2.2-2 3.9-2.2 5-.3 1.5-.5 3.7-.5 6.6l41.1 10.5c1.8-3.6 1.6-5.9-.7-6.8l-5.6-2.3-17.4-14.2a.7.7 0 0 0-1 .1l-1.8 3c-2.4.5-4.2.6-5.5.3-1.1-.3-2.5-1.1-4.3-2.6-.6-.5-1.6-.4-2 .3l-.1.1z"/>
    </g>
    <path fill="#FF4133" d="M1036 499c-2 7.7 45 .9 49 .1 14-2.3 14-.1 20 1.7 29-58.4-11-125.4-13-173.9l-66 .4c-5 12.1-5 27.7-5 33.5 13 91.7-26.1 145.9 4 137.6 8-3.2 12-.8 11 .6z"/>
    <g>
      <path fill="#B28B67" d="M1056 215a24.2 24.2 0 0 1-7.8-16.8c-.2-19.1 26.7-17 32.6-7.9 6 9.2 7.3 33.6.8 35.9-2.6.9-8.4-.3-14.4-3.3l5.7 25.3-21.4 1.7 4.6-34.9z"/>
      <path fill="#2C2C2C" d="M1075.5 184.4l-2.1-1c-.2 0-1-.6-1-.6-.7.3-2.5 1.2-2.6 2l-.1.1a31.5 31.5 0 0 0-1.7 5c-.7 2.4-1.2 4.7-1.7 7l-1.3 7.2c-.6 3.5-1.5 6.9-2.1 10.3-.5 2.2-.6 4.4-.3 6.6l.2 1 .2 1 1.8-5.4.1-.6.6-1 3.6-7c2.1-4.2 4.2-8.5 6.8-12.4l2.3-3.5 1.2-2c.3-.5 1.6-2.2 1-3.1-.3-.5-3.6-3-5-3.7z"/>
      <path fill="#8991DC" d="M1073.5 183.5c.5 0 .2-.9-.3-1.2-2.3-1.4-10.5-1.4-17.4.7-4.7 1.4-10 4.3-13.6 7.8a23.9 23.9 0 0 0-6 12.4c-1 4.7-.7 9.5.4 14.2.2 1 .6 2 1 3 .2 1.2.4 2.3.9 3.4l1 2c.3.7.2 1.4 0 2.3 0 1.3-.3 2.6-.7 3.9-.5 2-1.2 3.7-1.6 5.7-.5 2.7-2.8 11.3-.4 13.4l41.4-3.4c-1.3-2.7-4.7-5.8-5.6-8.8-.5-1.8-1-5.7-1-5.8-1.5-6.4-3.6-9.3-4.8-10.3-1.2-1-2.8-1.2-3-2.2-.6-4 .7-8 1.5-11.8 1-4.5 1.7-9.2 2.8-13.7.4-2 2.9-12.3 5.4-11.6z"/>
      <path fill-opacity=".2" d="M1059.4 189.2c-1.2 5.1-1.3 7.8-.4 14.5l-.8.1c-2-6.3-1.1-12.4.2-14.5h1zm-19.9 14.5c3.5 6.9 5.2 11 13.7 16l-.6.5c-8.4-4-11.2-9.2-13.7-16.1l.6-.4zm11.4-8.1c2.1 9.9 3 15.6 10.7 26l-.7.3c-7.8-9-9.6-16.7-10.7-26.2l.7-.1zm-5.2 30.4l.6-.8c8.7 2 8.2 7.5 19.5 12.3l-.9.6c-9.7-3.1-12.6-11.3-19.2-12.1z"/>
    </g>
    <path fill="#997659" d="M1101 304.1l33 9.7a91 91 0 0 0 17 9.8c2 .1 4 .1 1-3.6s-7-7.5-5-8.7c0-1.9 4-.9 5-3.3 0-1.8-5-2.4-17-3.2l-26-14.3-8 13.6z"/>
    <path fill="#2026A2" d="M1065 238.1c17 26.3 41 45.3 74 64.3l-10 14.5c-36-9.5-55-15.4-67-40.7-3-6.4-7-27.1-9-38l12-.1z"/>
    <rect width="105.1" height="132.8" x="1136" y="188.6" fill="#BFBFBF" transform="scale(-1) rotate(12.3 2372.9 -11058.1)"/>
    <path fill="#997659" d="M1110 230.4l31-13c6-5.3 11-9.3 16-12 2-.5 4-.5 1 3.4-2 4-5 8.3-4 9.8 1 1.4 4-.1 5 2.3 1 1.5-4 3.2-16 5.1l-24 17.3-9-12.9z"/>
    <path fill="#F2F2F2" d="M1032 334.5l66-6.5c-19-44-30-74.5-32-91.4 0-.9-2-2.3-2-2-5 2-11 2-17 0-13 26.7-16 58.1-15 99.9z"/>
    <path fill="#1F28CF" d="M1052 234.1c19-1.7 50-1.3 84-16.2l6 17.1c-25 19.8-51 35.8-75 36.3 15 43.1 18 80.4-5 81.6l-40 1.9c-10-36.9 5-88.8 16-116.4 1-1.1 2-3.1 4-3.3l10-1z"/>
    <path fill="#997659" d="M1250 272.4s-10-2.4-9-9.1c0-2-3-2.9-2-5.3-1-2.1 5 .3 14 6.6l-3 7.8z"/>
  </g>
</svg>
