<?xml version="1.0" encoding="UTF-8" standalone="no"?>

<svg xmlns="http://www.w3.org/2000/svg" width="1000" viewBox="0 0 1920 1080">
  <rect id="rect6886" width="1920" height="1080" fill="#89c5cc" stroke-width="2"/>
  <rect id="rect20287" width="886.9" height="212.6" x="516.6" y="137.7" fill="#ff9b21" filter="url(#filter20382)" opacity=".7" ry="6.5"/>
  <rect id="rect20621" width="886.9" height="212.6" x="516.6" y="137.7" fill="#ff9b21" ry="6.5"/>
  <g id="g20491" fill="#f1f4f6" transform="translate(-92 -637.5)">
    <g id="flowRoot1491" aria-label="Upload Any Illustration" font-family="HK Grotesk" font-size="40" font-weight="700" letter-spacing="0" style="line-height:1.25;-inkscape-font-specification:'Architects Daughter Bold'" transform="translate(-55.6 -218.9) scale(1.293)" word-spacing="0">
      <path id="path839" d="M714.9 867.4c7.4 0 10.5-4.4 10.5-11.4v-16.6h-4.9v16.3c0 4.4-1.2 6.9-5.6 6.9-4.5 0-5.6-2.5-5.6-6.9v-16.3h-5v16.8c0 6.8 3.2 11.2 10.6 11.2z" style="-inkscape-font-specification:'HK Grotesk Bold'"/>
      <path id="path841" d="M730.6 875.6h4.9V865c1.3 1.7 3.4 2.4 5.6 2.4 5.3 0 8.3-4.8 8.3-10.2 0-5.4-3-10.1-8.3-10.1-2.1 0-4.2.5-5.6 2.3v-1.9h-4.9zm9.3-12.6c-3.2 0-4.7-2.5-4.7-5.8 0-3.2 1.5-5.8 4.7-5.8 3.1 0 4.6 2.6 4.6 5.8 0 3.3-1.5 5.8-4.6 5.8z" style="-inkscape-font-specification:'HK Grotesk Bold'"/>
      <path id="path843" d="M757.8 867.4c1.4 0 3.4-.4 3.4-.4v-4l-1.2.1c-1.1 0-1.6-.4-1.6-1.3v-22.4h-4.8v23.7c0 3.5 1.8 4.3 4.2 4.3z" style="-inkscape-font-specification:'HK Grotesk Bold'"/>
      <path id="path845" d="M773.4 867.4a10 10 0 0 0 10.2-10.1 10 10 0 0 0-10.2-10.1 10 10 0 0 0-10.2 10.1 10 10 0 0 0 10.2 10.1zm0-4.1c-3.6 0-5-2.8-5-6s1.4-5.9 5-5.9 5 2.7 5 5.9-1.4 6-5 6z" style="-inkscape-font-specification:'HK Grotesk Bold'"/>
      <path id="path847" d="M793.4 867.4a7 7 0 0 0 6.3-3.2l.5 2.8h3.7v-11.8c0-4.8-3.1-8-8.4-8a9.3 9.3 0 0 0-8.2 4.2l3.6 2.6a5.4 5.4 0 0 1 4.4-2.7c2.9 0 4.1 1.6 4.1 4.1h-5.1c-4.4 0-8 1.3-8 5.8 0 3.8 3.4 6.2 7.1 6.2zm.9-4c-1.8 0-3.1-1-3.1-2.2 0-1.3 1.2-2.4 3.4-2.4h4.8c-.1 2.4-2.4 4.6-5.1 4.6z" style="-inkscape-font-specification:'HK Grotesk Bold'"/>
      <path id="path849" d="M815.5 867.4a7 7 0 0 0 5.6-2.4v2h4.8v-27.6h-4.8v10a7.3 7.3 0 0 0-5.6-2.3c-5.4 0-8.4 4.7-8.4 10.1 0 5.4 3 10.2 8.4 10.2zm1.2-4.4c-3.2 0-4.7-2.5-4.7-5.8 0-3.2 1.5-5.8 4.7-5.8s4.6 2.6 4.6 5.8c0 3.4-1.4 5.8-4.6 5.8z" style="-inkscape-font-specification:'HK Grotesk Bold'"/>
      <path id="path851" d="M839.9 867h5.4l2.1-6h10.7l2.2 6h5.3l-11-27.6h-3.7zm9.2-10.2l3.7-10.1 3.7 10.1z" style="-inkscape-font-specification:'HK Grotesk Bold'"/>
      <path id="path853" d="M868.8 867h4.9v-10.7a5 5 0 0 1 4.8-4.7c2.5 0 3.2 1.9 3.2 4.3V867h4.8v-11.7c0-4.1-2.1-8.1-7.2-8.1-1.9 0-4.1.6-5.6 2.6v-2.3h-4.9z" style="-inkscape-font-specification:'HK Grotesk Bold'"/>
      <path id="path855" d="M893.3 875.4h5.2l11.2-27.9h-5.2l-5 13.5-5-13.5h-5.2l7.6 19z" style="-inkscape-font-specification:'HK Grotesk Bold'"/>
      <path id="path857" d="M923.7 867h4.9v-27.6h-4.9z" style="-inkscape-font-specification:'HK Grotesk Bold'"/>
      <path id="path859" d="M938.8 867.4c1.4 0 3.4-.4 3.4-.4v-4l-1.2.1c-1.1 0-1.6-.4-1.6-1.3v-22.4h-4.8v23.7c0 3.5 1.8 4.3 4.2 4.3z" style="-inkscape-font-specification:'HK Grotesk Bold'"/>
      <path id="path861" d="M950.2 867.4c1.5 0 3.5-.4 3.5-.4v-4l-1.2.1c-1.2 0-1.7-.4-1.7-1.3v-22.4H946v23.7c0 3.5 1.9 4.3 4.2 4.3z" style="-inkscape-font-specification:'HK Grotesk Bold'"/>
      <path id="path863" d="M964.2 867.4c2.1 0 4.2-.8 5.6-2.7v2.3h4.9v-19.5h-4.9v10.8c0 2.4-2.3 4.6-4.9 4.6-2.5 0-3.1-1.8-3.1-4.2v-11.2h-4.9V859c0 4.2 2.2 8.4 7.3 8.4z" style="-inkscape-font-specification:'HK Grotesk Bold'"/>
      <path id="path865" d="M986.5 867.4c3.6 0 7.6-2 7.6-6.5 0-7.2-10-5.4-10-8.4 0-.9 1-1.5 2.6-1.5a4 4 0 0 1 3.8 2.3l3.4-1.8a8 8 0 0 0-7.3-4.3c-3.5 0-7 1.8-7 6 0 6.8 9.8 4.6 9.8 7.9 0 1.1-1 2.3-3.2 2.3-2.6 0-3.6-1.8-4.1-3.2l-3.8 1.7c.9 3 4 5.5 8.2 5.5z" style="-inkscape-font-specification:'HK Grotesk Bold'"/>
      <path id="path867" d="M1005 867.4c2 0 4-.6 4-.6v-4.3s-2 .7-3 .7c-2 0-2-.7-2-1.6v-9.8h5v-4.3h-5v-8.3l-4.9 3.4v4.9h-3.3v4.3h3.2v9.8c0 3.6 2 5.8 6 5.8z" style="-inkscape-font-specification:'HK Grotesk Bold'"/>
      <path id="path869" d="M1012 867h5v-9c0-3.5 2-6.3 5-6.3 1 0 1 .2 2 .7l2-3.9a7 7 0 0 0-4-1.3c-2 0-4 .8-5 2.8v-2.5h-5z" style="-inkscape-font-specification:'HK Grotesk Bold'"/>
      <path id="path871" d="M1034 867.4c3 0 5-.8 6-3.2l1 2.8h4v-11.8c0-4.8-4-8-9-8-4 0-6 1.4-8 4.2l4 2.6c0-1.4 2-2.7 4-2.7 3 0 4 1.6 4 4.1h-5c-4 0-8 1.3-8 5.8 0 3.8 3 6.2 7 6.2zm1-4c-2 0-3-1-3-2.2 0-1.3 1-2.4 3-2.4h5c0 2.4-2 4.6-5 4.6z" style="-inkscape-font-specification:'HK Grotesk Bold'"/>
      <path id="path873" d="M1056 867.4c2 0 4-.6 4-.6v-4.3s-1 .7-3 .7c-1 0-2-.7-2-1.6v-9.8h5v-4.3h-5v-8.3l-5 3.4v4.9h-3v4.3h3v9.8c0 3.6 3 5.8 6 5.8z" style="-inkscape-font-specification:'HK Grotesk Bold'"/>
      <path id="path875" d="M1064 843.8h5v-4.4h-5zm0 23.2h4v-19.5h-4z" style="-inkscape-font-specification:'HK Grotesk Bold'"/>
      <path id="path877" d="M1083 867.4c6 0 10-4.6 10-10.1s-4-10.1-10-10.1-11 4.6-11 10.1 5 10.1 11 10.1zm0-4.1c-4 0-5-2.8-5-6s1-5.9 5-5.9c3 0 5 2.7 5 5.9s-2 6-5 6z" style="-inkscape-font-specification:'HK Grotesk Bold'"/>
      <path id="path879" d="M1097 867h5v-10.7c0-2.4 2-4.7 5-4.7 2 0 3 1.9 3 4.3V867h5v-11.7c0-4.1-2-8.1-7-8.1-2 0-5 .6-6 2.6v-2.3h-5z" style="-inkscape-font-specification:'HK Grotesk Bold'"/>
    </g>
    <g id="g20261" data-name="Layer 3" transform="translate(710 839.7)">
      <path id="polygon20257" d="M8.1 95H92V71h-12v12H20.1V71H8z"/>
      <path id="polygon20259" d="M62 35.2h11.6L50 5 26.4 35.2H38V77h24z"/>
    </g>
  </g>
  <g id="g20482" transform="matrix(.98674 0 0 .98674 2 301.6)">
    <rect id="rect20400" width="896.7" height="573.5" x="522.5" y="136.4" fill="#b3b3b3" stroke-width="3.9" ry="4.8"/>
    <path id="path20235" fill="#fff" stroke-width="19" d="M1292.5 325a64.5 64.5 0 1 0-.1-129 64.5 64.5 0 0 0 .1 129z"/>
    <path id="path20394" fill="#ccc" stroke-width="19" d="M1130.7 710l-112.9-140 169.7-140.6 231.7 157.7V710z"/>
    <path id="path20392" fill="#ccc" stroke-width="19" d="M522.5 448.5l214.9-199.8 378.3 461.2H522.5z"/>
    <path id="path20396" fill="#fff" stroke-width="19" d="M522.5 448.5s203.5-209.3 211.7-207c8.2 2.2 254.7 305.8 252.6 311.2 0 0-38-43-47.5-41-6.3 1.3-32 38.7-39 39.2-5.3.3-64.5-48.8-74-49-8.5-.3-47.3 53.7-54 52.3-7.3-1.6-53.6-54.3-68.8-55.7-10.2-1-57.7 47.3-67.7 49.6-9.4 2.2-49.3-43.5-60.5-44.6-18.3-1.7-52.8 40.2-52.8 40.2z"/>
    <path id="path20398" fill="#e3e5f4" stroke-width="9.8" d="M1334.2 529.7c.3-2-133.4-100-146.7-100.3-11-.2-130.3 105.9-129.4 107.2 0 0 34.6-17.8 39.5-16.8 3.2.7 9.5 18.2 13.2 18.4 2.7.2 22.7-15.7 27.6-15.8 4.4-.1 21 16.7 24.3 16 3.8-.8 22.6-14.6 30.5-15.3 5.2-.5 22.5 13.5 27.6 14.7 4.9 1.1 22.3-13.7 28-14.3 9.6-.9 24.6 13.5 28.6 13.5 5.8 0 16.3-14.1 24.7-14.1 4.4 0 20.4 14.9 24.6 14.9 0 0 3.6-6.7 7.5-8.1z"/>
    <path id="path20473" fill="#fff" stroke-width="9.8" d="M1334.2 529.7c.3-2-133.4-100-146.7-100.3-11-.2-129.9 105.5-129.4 107.2 1-.6 34.6-17.8 39.5-16.8 3.2.7 9.5 18.2 13.2 18.4 2.7.2 22.7-15.7 27.6-15.8 4.4-.1 21 16.7 24.3 16 3.8-.8 22.6-14.6 30.5-15.3 5.2-.5 22.5 13.5 27.6 14.7 4.9 1.1 22.3-13.7 28-14.3 9.6-.9 24.6 13.5 28.6 13.5 5.8 0 16.3-14.1 24.7-14.1 4.4 0 20.4 14.9 24.6 14.9 0 0 3.6-6.7 7.5-8.1z" opacity=".6"/>
  </g>
</svg>
